<svg class="Main-Sprite"
     xmlns="http://www.w3.org/2000/svg" version="1.1"
     xmlns:xlink="http://www.w3.org/1999/xlink">

    <style type="text/css">
        .logo-text{
        font-family:'Open Sans'; font-weight:900; font-style:italic;
        font-size:78rem;text-transform:uppercase;
        }
    </style>
    <symbol id="logo" viewBox="0 0 580 320">
        <g>
            <path fill-rule="evenodd" clip-rule="evenodd" fill="#222222" d="M374.9,197.2l57.7-5l2.4-5c4.5-0.6,6.6-2,9.2-6.1
		c2.1-5.5,1.4-15.6-0.6-16.8c2.3-6.7-0.4-15.6-2-24h-1.9l-5.5-55.3l1.4-11.2l-27.1-44.2c5.5-2.8,5.2-6.7-1.9-12.2
		C384.4,3.4,361.5-3.9,328.4,2.2l-234,66.6c-8.8,2.6-8.1,94.8-3.9,97.6l24.9,11.3c1,1.9,2.2,3.5,3.8,4.7l-10.7,1.4l254.3,32.4
		l84.8-11.8L374.9,197.2z"/>
            <path fill-rule="evenodd" clip-rule="evenodd" fill="#FFFFFF" d="M411.6,22.5c-18.7-11.6-47.6-15.2-69.9-15.2l-16,11.2L285.5,29
		l-1.2,37.6h-12.4c0-16.2,1.7-32.4,7.9-46.5L92.3,71.6c0.5-1.3,1-2.3,2.4-2.9l231.6-66c12.3-2.9,26.3-3.6,40.6-1.3
		C384.6,4.6,406.3,14.4,411.6,22.5 M435.3,77.2l-89.2-7.4h-75.7L88.2,101.4l-0.4,10.3l260.1-34.3l86.4,7.3L435.3,77.2z"/>
            <path fill-rule="evenodd" clip-rule="evenodd" fill="#FFFFFF" d="M441.7,139.2l-89.9,4.7l-4.7-67.5l-45.5,6.1l3.9,58.1l-22.5-9.2
		l-3-45.9l-17.1,2.2l3.2,44.7l-46.1,1.6l-2.8-40.2l-15.2,2.2l2.8,38.7l-36.3,1.4l-2.4-35.4l-14.6,1.9l2.5,34.2l-24.7,0.7L115,107.2
		l-27.2,3.6c-0.7,16.1-0.7,42.4,2.5,54.6l25,11.2l-1.2-17c0-4.8,0.8-8.8,3.4-12.1h6.2l3,4.8h5.4c0.8-2.3,1.5-4.1,3-5.6h8.2
		c3.9,4.2,5.8,8.6,7.2,13.8l1.2,17.4l107,11.8l-1.6-23.2c0.7-7.7,2.8-15.2,8.6-19.6h16.6c6.8,5.9,10.7,13.6,12.7,20.8l1.5,22
		c0.3,2.9,2,5.3,5.6,5.3h54l-2.8-40.2l90.3-6L441.7,139.2z"/>
            <path fill-rule="evenodd" clip-rule="evenodd" fill="#FBB03B" d="M434.7,89.1l-8.8,0.2l4.7,36.7l3.8,1.7l0.2,1.3l-1.2,0.6l0.3,3.8
		l2.4,4.6h3.4L434.7,89.1z M421.1,88h-14l1.4,18.7l7.1,8.4h-1.9l0.3,4h10.9L421.1,88z"/>
            <polygon fill-rule="evenodd" clip-rule="evenodd" fill="#222222"
                     points="342.3,77.9 346.4,147 310,142.4 306.9,82.5 	"/>
            <path fill-rule="evenodd" clip-rule="evenodd" fill="#FFFFFF" d="M390.9,172.5l-19.7,2c-1.2,0.1-2.1,1-2,2l0.5,6.6
		c0.1,1.1,1.1,1.8,2.3,1.6l19.7-2c1.2-0.1,2.1-1,2-2l-0.5-6.6C393.1,173,392.1,172.4,390.9,172.5 M437.3,168.7l-13.6,1.3
		c-0.8,0-1.4,0.7-1.3,1.7l0.4,5.8c0.1,0.8,0.7,1.6,1.5,1.4l13.6-1.3c0.8-0.1,1.4-0.8,1.3-1.8l-0.4-5.6
		C438.8,169.1,438.1,168.5,437.3,168.7"/>
            <path fill-rule="evenodd" clip-rule="evenodd" fill="#FFFFFF" d="M366.4,174.8l-3.1,0.2c-0.8,0-1.4,0.7-1.3,1.4l0.6,8
		c0.1,0.7,0.7,1.3,1.5,1.2l3.1-0.2c0.7-0.1,1.3-0.7,1.2-1.6l-0.5-7.9C367.8,175.1,367.1,174.7,366.4,174.8 M442.4,168.1l-2.1,0.2
		c-0.5,0-0.9,0.6-0.9,1.2l0.5,7c0,0.7,0.6,1.2,1,1.1l2.1-0.1c0.5,0,0.9-0.6,0.9-1.3l-0.5-7C443.4,168.5,442.9,168.1,442.4,168.1"/>
            <path fill-rule="evenodd" clip-rule="evenodd" fill="#FFFFFF" d="M286.4,167.1c-5.4-7-12.9-7.7-16.8-2.8c-1.2,1.7-2.5-0.2-1.3-3.6
		c4.7-12,16.1-6.1,20.1,2.4C290.3,167.1,289.9,170.1,286.4,167.1 M279.2,197.5c-3.2-0.7-5.2-2.5-8.2-5.3c-1.3-1.4-1.5,0.4-0.9,2.3
		c1.3,3.4,4,5,6.6,6.4C279.5,201.7,281.7,198.3,279.2,197.5"/>
            <path fill-rule="evenodd" clip-rule="evenodd" fill="#FFFFFF" d="M276.8,163.4c-5.5,0.2-9.2,7.9-8.1,16.9c1.1,9,6.5,16.1,12,15.7
		c5.6-0.2,9.2-7.8,8.2-16.8C287.8,170.2,282.4,163.1,276.8,163.4"/>
            <path fill-rule="evenodd" clip-rule="evenodd" fill="#FFFFFF" d="M145.2,160.6c-3.2-4.7-7.8-5-10.1-1.8c-0.8,1.1-1.6-0.1-0.9-2.4
		c2.8-8,9.8-4.2,12.2,1.6C147.6,160.6,147.2,162.7,145.2,160.6 M140.9,180.8c-2-0.5-3.2-1.7-5-3.5c-0.7-1-0.8,0.2-0.5,1.6
		c0.8,2.2,2.5,3.4,4,4.2C141.1,183.7,142.5,181.4,140.9,180.8"/>
            <path fill-rule="evenodd" clip-rule="evenodd" fill="#E6E7E8" d="M139.4,158.2c-3.4,0.1-5.5,5.2-4.9,11.2c0.8,6,4.1,10.7,7.5,10.6
		c3.3-0.2,5.5-5.3,4.9-11.3C146,162.7,142.7,158,139.4,158.2"/>
            <path fill-rule="evenodd" clip-rule="evenodd" fill="#FFFFFF" d="M126.1,160.6c-2.9-4.1-6.8-4.4-8.9-1.7c-0.5,1-1.3,0-0.7-2
		c2.5-7,8.5-3.6,10.7,1.3C128.1,160.6,127.9,162.3,126.1,160.6 M122.4,178.1c-1.7-0.4-2.7-1.4-4.4-3.1c-0.7-0.7-0.7,0.2-0.4,1.3
		c0.6,2,2.1,3,3.5,3.7C122.6,180.5,123.7,178.6,122.4,178.1"/>
            <path fill-rule="evenodd" clip-rule="evenodd" fill="#E6E7E8" d="M121,158.5c-2.9,0.2-4.8,4.6-4.2,9.7c0.6,5.2,3.5,9.4,6.4,9.1
		c3-0.1,4.9-4.4,4.2-9.7C126.8,162.4,124,158.3,121,158.5"/>
            <path fill-rule="evenodd" clip-rule="evenodd" fill="#222222" d="M138.1,177.7c-0.1,0-0.3-0.4-0.3-0.8c0-0.5,0.1-0.7,0.2-0.7
		c0.2,0,0.4,0.2,0.4,0.7C138.4,177.3,138.3,177.7,138.1,177.7 M139.5,179c-0.2,0-0.4-0.6-0.4-1.2c-0.1-0.7,0-1.2,0.3-1.2
		c0.2,0,0.5,0.5,0.6,1.2C139.9,178.4,139.7,179,139.5,179 M141.3,179.6c-0.4,0-0.7-0.7-0.7-1.4c-0.1-0.8,0.1-1.4,0.5-1.4
		c0.4,0,0.8,0.6,0.8,1.4C142,178.9,141.7,179.6,141.3,179.6 M143.5,178.3c-0.6,0-1-0.7-1.1-1.4c0-0.7,0.3-1.4,0.9-1.4
		c0.5,0,1,0.7,1.1,1.4C144.4,177.5,144,178.3,143.5,178.3 M144.9,175.5c-0.6,0-1.1-0.7-1.2-1.4c-0.1-0.7,0.4-1.4,1-1.4
		c0.6,0,1.1,0.7,1.2,1.4C145.9,174.8,145.5,175.5,144.9,175.5 M145.5,172.4c-0.6,0-1.1-0.7-1.2-1.4c-0.1-0.8,0.4-1.4,1-1.4
		c0.6,0,1.1,0.6,1.2,1.4C146.5,171.7,146.1,172.4,145.5,172.4 M145,166.4c-0.6,0-1,0.7-1,1.4c0.1,0.8,0.6,1.4,1.2,1.4
		c0.6,0,1-0.6,1-1.4C146.1,167.1,145.6,166.4,145,166.4 M144,162.8c-0.6,0-1,0.6-1,1.4c0.1,0.7,0.6,1.4,1.2,1.4c0.6,0,1-0.7,1-1.4
		C145.1,163.4,144.6,162.8,144,162.8 M142.3,160c-0.6,0-0.9,0.6-0.9,1.4c0.1,0.7,0.5,1.4,1.1,1.4c0.5,0,0.9-0.7,0.9-1.4
		C143.3,160.6,142.7,160,142.3,160 M139.9,158.7c-0.4,0-0.6,0.7-0.5,1.4c0.1,0.7,0.3,1.4,0.7,1.4c0.4,0,0.7-0.7,0.6-1.4
		C140.7,159.4,140.3,158.7,139.9,158.7 M137.9,158.9c-0.2,0-0.4,0.7-0.4,1.4c0.1,0.8,0.3,1.4,0.6,1.4c0.2,0,0.4-0.6,0.4-1.4
		C138.4,159.7,138.1,158.9,137.9,158.9 M136.4,160.5c-0.2,0-0.4,0.6-0.4,1.3c0,0.6,0.3,1.2,0.6,1.2c0.2,0,0.4-0.6,0.4-1.2
		C136.9,161.1,136.7,160.5,136.4,160.5 M142.3,163.9l-1,1c3,6.2,1.3,11.8-2.3,11.3C143,178.7,146.4,170.6,142.3,163.9 M137.2,172
		l0.7-0.5c-1.5-3.6-0.2-6.6,1.9-6C137.6,163.7,135.4,168.1,137.2,172"/>
            <path fill-rule="evenodd" clip-rule="evenodd" fill="#222222" d="M274.5,192.8c-0.2,0-0.5-0.6-0.6-1.3c0-0.6,0.2-1.2,0.4-1.2
		c0.2,0,0.5,0.6,0.6,1.2C275,192.2,274.8,192.8,274.5,192.8 M276.8,194.7c-0.4,0-0.8-0.8-0.9-1.9c-0.1-1,0.2-1.8,0.6-1.8
		c0.4,0,0.8,0.8,0.8,1.8C277.5,193.9,277.2,194.7,276.8,194.7 M279.9,195.5c-0.6,0-1.1-1-1.2-2.2c-0.1-1.2,0.3-2.2,0.9-2.2
		c0.6,0,1.1,1,1.2,2.2C280.9,194.6,280.5,195.5,279.9,195.5 M283.3,193.6c-0.8,0-1.6-1-1.7-2.2c-0.1-1.2,0.6-2.2,1.4-2.2
		c0.8,0,1.6,1,1.7,2.2C284.8,192.7,284.2,193.6,283.3,193.6 M285.7,189.4c-1,0-1.7-1-1.8-2.2c-0.1-1.1,0.6-2,1.5-2c1,0,1.9,1,1.9,2
		C287.4,188.5,286.6,189.4,285.7,189.4 M286.7,184.8c-1,0-1.7-1-1.8-2.2c-0.1-1.2,0.6-2.2,1.5-2.2c1,0,2,1,2.1,2.2
		C288.5,183.8,287.6,184.8,286.7,184.8 M285.9,175.9c-1,0-1.6,1-1.5,2.2c0.1,1.1,0.9,2,1.8,2c1,0,1.7-1,1.7-2
		C287.8,176.8,286.9,175.9,285.9,175.9 M284.4,170.3c-1,0-1.6,1-1.5,2.2c0.1,1.2,0.9,2.2,1.8,2.2c1,0,1.7-1,1.6-2.2
		C286.2,171.3,285.3,170.3,284.4,170.3 M281.4,166.3c-0.8,0-1.5,1-1.4,2c0.1,1.2,0.9,2.2,1.7,2.2c0.8,0,1.5-1,1.4-2.2
		C283.1,167.2,282.3,166.3,281.4,166.3 M277.7,164.3c-0.6,0-1,1-0.9,2c0.1,1.2,0.6,2.2,1.2,2.2c0.6,0,1-1,0.9-2.2
		C278.9,165.3,278.3,164.3,277.7,164.3 M274.4,164.7c-0.5,0-0.8,1-0.7,2.2c0.1,1.1,0.5,2,1,2c0.4,0,0.7-1,0.6-2
		C275.2,165.7,274.7,164.7,274.4,164.7 M271.9,167c-0.4,0-0.7,0.8-0.6,1.9c0.1,1,0.5,1.8,0.8,1.8s0.7-0.8,0.6-1.8
		C272.7,167.8,272.3,167,271.9,167 M281.6,172l-1.7,1.6c4.8,9.2,1.9,17.5-4,16.7C282.5,194.4,288.1,182.2,281.6,172 M273.1,184.3
		l1-0.7c-2.2-5.4-0.1-9.8,3.1-9.1C273.9,171.8,270,178.3,273.1,184.3"/>
            <path fill-rule="evenodd" clip-rule="evenodd" fill="#222222" d="M119.9,175.4c-0.1,0-0.3-0.4-0.3-0.7c0-0.4,0.1-0.7,0.2-0.7
		c0.1,0,0.3,0.4,0.3,0.7C120.1,175,120,175.4,119.9,175.4 M121.1,176.6c-0.1,0-0.4-0.5-0.4-1.1c0-0.6,0.2-1.1,0.3-1.1
		c0.2,0,0.4,0.5,0.4,1.1C121.4,176.1,121.3,176.6,121.1,176.6 M122.7,177.1c-0.2,0-0.5-0.6-0.6-1.2c0-0.7,0.1-1.3,0.4-1.3
		c0.4,0,0.6,0.6,0.7,1.3C123.2,176.5,123,177.1,122.7,177.1 M124.5,175.9c-0.4,0-0.8-0.5-0.8-1.2c0-0.6,0.3-1.2,0.6-1.2
		c0.5,0,0.9,0.6,0.9,1.2C125.3,175.4,125,175.9,124.5,175.9 M125.8,173.5c-0.5,0-1-0.5-1-1.2c0-0.7,0.4-1.2,0.9-1.2
		c0.5,0,1,0.5,1,1.2C126.7,173,126.3,173.5,125.8,173.5 M126.3,170.8c-0.5,0-0.9-0.6-0.9-1.3c0-0.6,0.3-1.2,0.8-1.2
		c0.5,0,1,0.6,1,1.2C127.2,170.2,126.8,170.8,126.3,170.8 M125.8,165.7c-0.5,0-0.8,0.5-0.8,1.2c0.1,0.7,0.4,1.2,0.9,1.2
		c0.6,0,0.9-0.5,0.9-1.2C126.8,166.1,126.4,165.7,125.8,165.7 M125,162.4c-0.5,0-0.9,0.6-0.9,1.3c0,0.6,0.6,1.2,1,1.2
		c0.5,0,0.9-0.6,0.9-1.2C126,163,125.5,162.4,125,162.4 M123.4,160.1c-0.4,0-0.7,0.5-0.6,1.2c0,0.6,0.4,1.2,0.8,1.2
		c0.5,0,0.8-0.6,0.8-1.2C124.3,160.6,123.9,160.1,123.4,160.1 M121.4,158.9c-0.2,0-0.4,0.6-0.4,1.2c0,0.7,0.3,1.3,0.6,1.3
		c0.4,0,0.6-0.6,0.5-1.3C122.1,159.5,121.8,158.9,121.4,158.9 M119.6,159.2c-0.1,0-0.3,0.6-0.3,1.2c0.1,0.7,0.3,1.3,0.5,1.3
		c0.2,0,0.4-0.6,0.4-1.3C120.2,159.8,119.9,159.2,119.6,159.2 M118.4,160.5c-0.1,0-0.3,0.5-0.3,1.1c0,0.6,0.3,1.1,0.4,1.1
		c0.2,0,0.3-0.5,0.3-1.1C118.8,161,118.6,160.5,118.4,160.5 M123.5,163.4l-0.8,1c2.5,5.3,1.1,10.1-2.1,9.7
		C124.1,176.3,127.1,169.4,123.5,163.4 M119.1,170.5l0.6-0.4c-1.2-3.1-0.2-5.8,1.7-5.3C119.4,163.3,117.4,167,119.1,170.5"/>
        </g>
        <text transform="matrix(1 0 0 1 4.622 291.1696)">
            <tspan x="30" y="0" class="logo-text" fill="#222222">auto</tspan>
            <tspan x="250" y="0" class="logo-text" fill="#FFFFFF">donbus</tspan>
        </text>

    </symbol>
    <symbol id="arrow" viewBox="0 0 22.6 13.4">
        <polygon points="2.1,13.4 11.3,4.2 20.5,13.4 22.6,11.3 13.3,2 11.3,0 9.4,1.9 0,11.3 "/>
    </symbol>
    <symbol id="road-sign" viewBox="297.4 0 685.2 800">
        <path d="M740.8,88.8H592.6V0h148.2V88.8z"/>
        <path d="M740.8,355.5H592.6v-59.3h148.2V355.5z"/>
        <path d="M740.8,800H592.6V563h148.2V800z"/>
        <path d="M982.6,192.6l-83.5,74.1H385.2l70.2-74.1l-70.2-74h513.9L982.6,192.6z"/>
        <path d="M845.6,459.3l73,74.1H384.9l-87.5-74.1l87.5-74.1h533.6L845.6,459.3z"/>

    </symbol>
    <symbol id="bus" viewBox="0 0 440 440">
        <path d="M220,10.95c-84.844,0.006-156.626,3.691-168.209,8.635
		c-0.219,0.078-0.438,0.163-0.656,0.256c-0.108,0.046-0.211,0.092-0.309,0.139C41.606,23.915,35.012,40.194,35,59.05v40H25H5
		c-2.761,0-5,2.239-5,5v10v60c0,2.761,2.239,5,5,5h20c2.761,0,5-2.239,5-5v-55h5v175h65c2.761,0,5,2.239,5,5v20c0,2.761-2.239,5-5,5
		H35v35c0.004,7.138,1.909,13.73,5,17.299v42.701c0.001,5.523,4.477,9.999,10,10h30c5.523-0.001,9.999-4.477,10-10v-30h260v30
		c0.001,5.523,4.477,9.999,10,10h30c5.523-0.001,9.999-4.477,10-10v-42.709c3.089-3.567,4.995-10.156,5-17.291v-35h-65
		c-2.761,0-5-2.239-5-5v-20c0-2.761,2.239-5,5-5h65v-175h5v55c0,2.761,2.239,5,5,5h20c2.761,0,5-2.239,5-5v-60v-10
		c0-2.761-2.239-5-5-5h-20h-10v-40c-0.01-19.453-7.016-36.071-16.602-39.377C377.488,14.69,305.414,10.956,220,10.95L220,10.95z
		 M65,29.05h310c5.523,0,10,11.193,10,25v20c0,2.761-2.239,5-5,5H60c-2.761,0-5-2.239-5-5v-20C55,40.243,59.477,29.05,65,29.05z
		 M55,89.05h330c5.523,0.001,9.999,4.477,10,10v150c-0.001,5.523-4.477,9.999-10,10h-39.576l-8.772-4.363l14.096,0.096
		c2.761,0.053,5.042-2.143,5.095-4.904s-2.143-5.042-4.904-5.095c-0.042-0.001-0.083-0.001-0.125-0.001l-152.48-1.025
		c-2.761-0.053-5.042,2.143-5.095,4.904s2.143,5.042,4.904,5.095c0.042,0.001,0.083,0.001,0.125,0.001l115.623,0.777l22.838,11.359
		c-0.571,0.102-1.149,0.154-1.729,0.156H105c-1.293-0.002-2.573-0.255-3.77-0.744l28.428-17.635l123.895-8.022
		c2.758-0.143,4.878-2.495,4.735-5.253c-0.139-2.672-2.356-4.761-5.032-4.741c-0.116,0.001-0.232,0.006-0.348,0.016L94.379,239.935
		c-2.759,0.13-4.89,2.471-4.76,5.23c0.13,2.759,2.471,4.89,5.23,4.76c0.059-0.003,0.118-0.007,0.177-0.011l13.451-0.871
		L92.344,259.05H55c-5.523-0.001-9.999-4.477-10-10v-150C45,93.527,49.477,89.05,55,89.05L55,89.05z"/>

    </symbol>
    <symbol id="delivery" viewBox="240 175.7 800 448.6">
        <path d="M536.4,490.7c-36.9,0-66.8,29.9-66.8,66.9c0,36.8,29.8,66.8,66.8,66.8s66.8-30,66.8-66.8
	C603.2,520.6,573.4,490.7,536.4,490.7z M536.4,590.9c-18.5,0-33.4-15-33.4-33.4c0-18.5,14.9-33.4,33.4-33.4
	c18.5,0,33.4,14.9,33.4,33.4C569.8,575.9,554.9,590.9,536.4,590.9z M1040,441.3v71.3c0,17.8-14.4,32.2-32.2,32.2h-34.5
	c-6.2-42.7-43-75.6-87.5-75.6c-44.3,0-81.2,32.8-87.4,75.6H623.8c-6.2-42.7-43-75.6-87.4-75.6s-81.2,32.8-87.4,75.6h-43.2
	c-17.8,0-32.2-14.4-32.2-32.2v-71.3L1040,441.3L1040,441.3z M885.9,490.7c-36.9,0-66.9,29.9-66.9,66.9c0,36.8,30,66.8,66.9,66.8
	c36.8,0,66.8-30,66.8-66.8C952.7,520.6,922.8,490.7,885.9,490.7z M885.9,590.9c-18.5,0-33.4-15-33.4-33.4
	c0-18.5,14.9-33.4,33.4-33.4c18.4,0,33.4,14.9,33.4,33.4C919.3,575.9,904.3,590.9,885.9,590.9z M1027.3,369.5L900.8,244.3
	c-8.1-7.9-18.9-12.5-30.2-12.5h-63.9v-23.9c0-17.8-14.4-32.2-32.2-32.2H405.9c-17.7,0-32.2,14.4-32.2,32.2v5L243,228l231.6,30.2
	L240,281.5l233.7,33.2L240,335l133.7,25.2l0,63.3H1040v-23.5C1040,388.5,1035.4,377.5,1027.3,369.5z M972.1,373.6H849.7
	c-2.8,0-5-2.3-5-5V274c0-2.8,2.3-5,5-5H873c1.3,0,2.6,0.5,3.5,1.4l99.1,94.6C978.9,368.1,976.6,373.6,972.1,373.6z"/>

    </symbol>
    <symbol id="driver" viewBox="429 13.5 381.5 608">
        <path d="M487.5,307.2h41.3l37,238.8h111.1l34-238.8h41.3c32.1,0,58.4,26.3,58.4,58.4v197.4c0,32.1-26.3,58.4-58.4,58.4H487.5
	c-32.1,0-58.4-26.3-58.4-58.4V365.6C429,333.5,455.3,307.2,487.5,307.2L487.5,307.2z M732.9,127.4c4.4,12.4,6.8,25.8,6.8,39.8
	c0,66.2-53.7,119.8-119.8,119.8C553.6,287,500,233.4,500,167.2c0-13.9,2.4-27.3,6.8-39.8H732.9L732.9,127.4z M517.3,110.2
	c-9.7,0-19.2-3.1-22.4-10.5c-3.8-8.6-7.2-17.5-10.8-26.3c-6.7-16.4,0.5-23,10.6-27.2c20.4-8.5,40.8-17,61.2-25.5
	c14.8-6.2,15-7.2,30.9-7.2h65.9c16,0,16.2,1.1,30.9,7.2c20.4,8.5,40.8,17,61.2,25.5c10.1,4.2,17.3,10.9,10.6,27.2
	c-3.6,8.7-7,17.6-10.8,26.3c-3.3,7.4-12.8,10.5-22.5,10.5C654,110.2,585.6,110.2,517.3,110.2L517.3,110.2z M559.3,52.8V70h17.3V52.8
	H559.3L559.3,52.8z M576.6,70v17.3h17.3V70H576.6L576.6,70z M593.9,52.8V70h17.3V52.8H593.9L593.9,52.8z M611.2,70v17.3h17.3V70
	H611.2L611.2,70z M628.4,52.8V70h17.3V52.8H628.4L628.4,52.8z M645.7,70v17.3H663V70H645.7L645.7,70z M663,52.8V70h17.3V52.8H663
	L663,52.8z M630.6,342l11.6-25.3l-22.5-18l-22.4,18L609,342l-18.3,161.5l29.1,30.5l29.1-30.5L630.6,342z"/>
    </symbol>
    <symbol id="phone" viewBox="0 0 578.106 578.106">
        <path style="fill:#010002;" d="M577.83,456.128c1.225,9.385-1.635,17.545-8.568,24.48l-81.396,80.781
			c-3.672,4.08-8.465,7.551-14.381,10.404c-5.916,2.857-11.729,4.693-17.439,5.508c-0.408,0-1.635,0.105-3.676,0.309
			c-2.037,0.203-4.689,0.307-7.953,0.307c-7.754,0-20.301-1.326-37.641-3.979s-38.555-9.182-63.645-19.584
			c-25.096-10.404-53.553-26.012-85.376-46.818c-31.823-20.805-65.688-49.367-101.592-85.68
			c-28.56-28.152-52.224-55.08-70.992-80.783c-18.768-25.705-33.864-49.471-45.288-71.299
			c-11.425-21.828-19.993-41.616-25.705-59.364S4.59,177.362,2.55,164.51s-2.856-22.95-2.448-30.294
			c0.408-7.344,0.612-11.424,0.612-12.24c0.816-5.712,2.652-11.526,5.508-17.442s6.324-10.71,10.404-14.382L98.022,8.756
			c5.712-5.712,12.24-8.568,19.584-8.568c5.304,0,9.996,1.53,14.076,4.59s7.548,6.834,10.404,11.322l65.484,124.236
			c3.672,6.528,4.692,13.668,3.06,21.42c-1.632,7.752-5.1,14.28-10.404,19.584l-29.988,29.988c-0.816,0.816-1.53,2.142-2.142,3.978
			s-0.918,3.366-0.918,4.59c1.632,8.568,5.304,18.36,11.016,29.376c4.896,9.792,12.444,21.726,22.644,35.802
			s24.684,30.293,43.452,48.653c18.36,18.77,34.68,33.354,48.96,43.76c14.277,10.4,26.215,18.053,35.803,22.949
			c9.588,4.896,16.932,7.854,22.031,8.871l7.648,1.531c0.816,0,2.145-0.307,3.979-0.918c1.836-0.613,3.162-1.326,3.979-2.143
			l34.883-35.496c7.348-6.527,15.912-9.791,25.705-9.791c6.938,0,12.443,1.223,16.523,3.672h0.611l118.115,69.768
			C571.098,441.238,576.197,447.968,577.83,456.128z"/>
    </symbol>
    <symbol id="cross" viewBox="0 0 11.3 11.3">
        <polygon points="11.3,1.4 9.9,0 5.7,4.2 5.7,4.2 5.6,4.2 1.4,0 0,1.4 4.2,5.6 0,9.9 1.4,11.3 5.6,7.1 5.7,7.1 5.7,7.1 9.9,11.3
	11.3,9.9 7.1,5.6 "/>
    </symbol>
    <symbol id="routes" viewBox="0 0 217.205 217.205">
        <path d="M167.631,101.102H49.574c-16.216,0-29.408-13.199-29.408-29.422c0-16.211,13.192-29.399,29.408-29.399h73.789
		c4.143,0,7.5-3.358,7.5-7.5c0-4.142-3.357-7.5-7.5-7.5H49.574c-24.486,0-44.408,19.917-44.408,44.399
		c0,24.494,19.922,44.422,44.408,44.422h118.057c16.216,0,29.408,13.199,29.408,29.423c0,16.211-13.192,29.399-29.408,29.399H93.205
		c-4.142,0-7.5,3.358-7.5,7.5s3.358,7.5,7.5,7.5h74.426c24.486,0,44.408-19.917,44.408-44.399
		C212.039,121.03,192.117,101.102,167.631,101.102z"/>
        <path d="M48.516,130.001c-17.407,0-31.568,14.162-31.568,31.568c0,26.865,25.192,52.367,26.265,53.439
		c1.407,1.407,3.314,2.197,5.304,2.197c1.989,0,3.897-0.79,5.304-2.197c1.072-1.073,26.263-26.574,26.263-53.439
		C80.082,144.163,65.922,130.001,48.516,130.001z M48.516,198.357c-6.477-7.995-16.568-22.713-16.568-36.788
		c0-9.136,7.433-16.568,16.568-16.568c9.135,0,16.566,7.433,16.566,16.568C65.082,175.644,54.991,190.362,48.516,198.357z"/>
        <path d="M168.053,87.202c1.919,0,3.838-0.732,5.302-2.195c1.073-1.072,26.278-26.573,26.278-53.44
		C199.633,14.161,185.466,0,168.053,0c-17.407,0-31.568,14.161-31.568,31.566c0,26.866,25.192,52.367,26.266,53.439
		C164.214,86.47,166.133,87.202,168.053,87.202z M168.053,15c9.143,0,16.58,7.432,16.58,16.566c0,14.076-10.1,28.796-16.579,36.79
		c-6.476-7.994-16.569-22.713-16.569-36.79C151.484,22.432,158.917,15,168.053,15z"/>
    </symbol>
    <symbol id="vk" viewBox="0 0 262 262">
        <path fill-rule="evenodd" clip-rule="evenodd" d="M136.6,114.1c2.6-0.1,5.3-0.8,8.1-2.1c3-1.4,5.1-3.4,6.3-5.9
		c1.1-2.5,1.7-5.4,1.7-8.7c0-2.4-0.6-4.9-1.9-7.5c-1.3-2.6-3.2-4.4-5.8-5.6c-2.5-1.1-5.5-1.7-8.9-1.8c-3.4-0.1-8.5-0.2-15.3-0.2
		h-2.6v32h4.8C129.4,114.3,133.9,114.2,136.6,114.1z"/>
        <path fill-rule="evenodd" clip-rule="evenodd" d="M150.8,141.8c-2.3-0.9-5.5-1.4-9.5-1.5c-4-0.1-9.4-0.2-16.2-0.2h-7V178h2
		c9.9,0,16.7-0.1,20.5-0.2c3.8-0.1,7.6-1,11.6-2.7c3.5-1.5,6-3.7,7.6-6.5c1.6-2.9,2.4-6.1,2.4-9.8c0-4.7-0.9-8.3-2.8-11
		C157.4,145.1,154.6,143.1,150.8,141.8z"/>
        <path fill-rule="evenodd" clip-rule="evenodd" d="M210.6,0.1H52c-28.4,0-51.4,23-51.4,51.4v158.6c0,28.4,23,51.4,51.4,51.4h158.6
		c28.4,0,51.4-23,51.4-51.4V51.5C262,23.1,239,0.1,210.6,0.1z M197,179.2c-2.8,5.7-6.7,10.4-11.5,14.1c-5.7,4.5-11.9,7.6-18.7,9.5
		c-6.8,1.9-15.4,2.8-25.9,2.8H80.4V54.6h53.4c11.1,0,19.5,0.4,25.2,1.3c5.7,0.8,11.1,2.6,16.1,5.3c5.4,2.9,9.5,6.8,12.1,11.7
		c2.7,4.9,4,10.5,4,16.8c0,7.4-1.8,13.9-5.5,19.7c-3.7,5.8-8.8,10-15.3,12.7v0.8c9.3,2,16.8,6,22.4,12c5.6,6.1,8.4,14.2,8.4,24.5
		C201.3,166.9,199.8,173.5,197,179.2z"/>
    </symbol>


</svg>